{
   "id": 10127741,
   "name": "5 minute production app",
   "path": "5-minute-production-app",
   "description": "Deploy application to production in less than 5 minutes",
   "membership_lock": false,
   "visibility": "public",
   "lfs_enabled": true,
   "default_branch_protection": 2,
   "avatar_url": "",
   "web_url": "https://gitlab.com/groups/gitlab-org/5-minute-production-app",
   "request_access_enabled": true,
   "full_name": "GitLab.org / 5 minute production app",
   "full_path": "gitlab-org/5-minute-production-app",
   "parent_id": 9970,
   "projects": null,
   "statistics": null,
   "custom_attributes": null,
   "share_with_group_lock": false,
   "require_two_factor_authentication": false,
   "two_factor_grace_period": 48,
   "project_creation_level": "developer",
   "auto_devops_enabled": false,
   "subgroup_creation_level": "maintainer",
   "emails_disabled": false,
   "mentions_disabled": false,
   "shared_projects": null,
   "shared_with_groups": null,
   "ldap_cn": "",
   "ldap_access": 0,
   "ldap_group_links": null,
   "shared_runners_minutes_limit": 0,
   "extra_shared_runners_minutes_limit": 0,
   "marked_for_deletion_on": null,
   "created_at": "2020-11-16T15:39:11.739Z"
}