{
   "avatar_url" : null,
   "created_at" : "2016-06-02T11:52:03.050Z",
   "default_branch" : "master",
   "description" : "",
   "forks_count" : 33,
   "http_url_to_repo" : "https://gitlab.com/gitlab-org/ci-cd/docker-machine.git",
   "id" : 1254421,
   "last_activity_at" : "2021-06-04T22:36:59.434Z",
   "name" : "docker-machine",
   "name_with_namespace" : "GitLab.org / CI-CD / docker-machine",
   "namespace" : {
      "avatar_url" : null,
      "full_path" : "gitlab-org/ci-cd",
      "id" : 2287432,
      "kind" : "group",
      "name" : "CI-CD",
      "parent_id" : 9970,
      "path" : "ci-cd",
      "web_url" : "https://gitlab.com/groups/gitlab-org/ci-cd"
   },
   "path" : "docker-machine",
   "path_with_namespace" : "gitlab-org/ci-cd/docker-machine",
   "readme_url" : "https://gitlab.com/gitlab-org/ci-cd/docker-machine/-/blob/master/README.md",
   "ssh_url_to_repo" : "git@gitlab.com:gitlab-org/ci-cd/docker-machine.git",
   "star_count" : 36,
   "tag_list" : [],
   "topics" : [],
   "web_url" : "https://gitlab.com/gitlab-org/ci-cd/docker-machine"
}
