{
   "id": 25418438,
   "description": "",
   "default_branch": "master",
   "public": false,
   "visibility": "public",
   "ssh_url_to_repo": "git@gitlab.com:gitlab-org/file-mirror.git",
   "http_url_to_repo": "https://gitlab.com/gitlab-org/file-mirror.git",
   "web_url": "https://gitlab.com/gitlab-org/file-mirror",
   "readme_url": "https://gitlab.com/gitlab-org/file-mirror/-/blob/master/README.md",
   "tag_list": [],
   "topics": null,
   "owner": null,
   "name": "file-mirror",
   "name_with_namespace": "GitLab.org / file-mirror",
   "path": "file-mirror",
   "path_with_namespace": "gitlab-org/file-mirror",
   "issues_enabled": true,
   "merge_requests_enabled": true,
   "approvals_before_merge": 0,
   "jobs_enabled": true,
   "wiki_enabled": true,
   "snippets_enabled": true,
   "resolve_outdated_diff_discussions": false,
   "container_registry_enabled": true,
   "container_registry_access_level": "",
   "created_at": "2021-03-25T12:41:52.481Z",
   "creator_id": 2167502,
   "namespace": {
      "id": 9970,
      "name": "GitLab.org",
      "path": "gitlab-org",
      "kind": "group",
      "full_path": "gitlab-org",
      "avatar_url": "/uploads/-/system/group/avatar/9970/logo-extra-whitespace.png",
      "web_url": "https://gitlab.com/groups/gitlab-org"
   },
   "import_status": "none",
   "import_error": "",
   "permissions": null,
   "marked_for_deletion_at": null,
   "empty_repo": false,
   "archived": false,
   "avatar_url": "",
   "license_url": "",
   "license": null,
   "shared_runners_enabled": true,
   "public_builds": false,
   "allow_merge_on_skipped_pipeline": false,
   "only_allow_merge_if_pipeline_succeeds": false,
   "only_allow_merge_if_all_discussions_are_resolved": false,
   "remove_source_branch_after_merge": true,
   "printing_merge_request_link_enabled": true,
   "lfs_enabled": true,
   "repository_storage": "",
   "request_access_enabled": true,
   "merge_method": "merge",
   "forked_from_project": null,
   "mirror": false,
   "mirror_user_id": 0,
   "mirror_trigger_builds": false,
   "only_mirror_protected_branches": false,
   "mirror_overwrites_diverged_branches": false,
   "packages_enabled": true,
   "service_desk_enabled": true,
   "service_desk_address": "incoming+gitlab-org-file-mirror-25418438-issue-@incoming.gitlab.com",
   "issues_access_level": "enabled",
   "repository_access_level": "enabled",
   "merge_requests_access_level": "enabled",
   "forking_access_level": "enabled",
   "wiki_access_level": "enabled",
   "builds_access_level": "enabled",
   "snippets_access_level": "enabled",
   "pages_access_level": "enabled",
   "operations_access_level": "enabled",
   "analytics_access_level": "enabled",
   "autoclose_referenced_issues": true,
   "suggestion_commit_message": "",
   "auto_cancel_pending_pipelines": "enabled",
   "ci_forward_deployment_enabled": true,
   "squash_option": "",
   "shared_with_groups": [],
   "statistics": null,
   "_links": {
      "self": "https://gitlab.com/api/v4/projects/25418438",
      "issues": "https://gitlab.com/api/v4/projects/25418438/issues",
      "merge_requests": "https://gitlab.com/api/v4/projects/25418438/merge_requests",
      "repo_branches": "https://gitlab.com/api/v4/projects/25418438/repository/branches",
      "labels": "https://gitlab.com/api/v4/projects/25418438/labels",
      "events": "https://gitlab.com/api/v4/projects/25418438/events",
      "members": "https://gitlab.com/api/v4/projects/25418438/members"
   },
   "ci_config_path": "",
   "ci_default_git_depth": 50,
   "custom_attributes": null,
   "compliance_frameworks": [],
   "build_coverage_regex": "",
   "build_timeout": 3600,
   "issues_template": "",
   "merge_requests_template": "",
   "keep_latest_artifact": false,
   "merge_pipelines_enabled": false,
   "merge_trains_enabled": false,
   "restrict_user_defined_variables": false,
   "merge_commit_template": "",
   "squash_commit_template": ""
}